{
  "Manufacturer": "Hotpoint",
  "ProductPrice": 20.99,
  "ProductUrl": "https://www.comet.it/prodotti-pulizia/deosplit-spray-pulizia-igienizzante-climatizzatore-indesit-ariston",
  "ProductName": "DEOSPLIT SPRAY PULIZIA IGIENIZZANTE CLIMATIZZATORE INDESIT ARISTON",
  "ImageUri": "https://cdnakamai.comet.it/b2c/public/products/HOT006071/a1648f3afa4d227b4d8e67d34a780092-5ea9565aa7fcf6.19302878-Immagine.jpg",
  "ProductId": "HOT006071",
  "Stock": "InStock"
}