{
  "Manufacturer": "Hotpoint",
  "ProductPrice": 11.99,
  "ProductUrl": "https://www.comet.it/accessori-pulizia/elettrocasa-rw-18-tnt",
  "ProductName": "Elettrocasa - Rw 18 Tnt",
  "ImageUri": "https://cdnakamai.comet.it/b2c/public/icecat/ELR001671/1ac8f5a62f0f3c55fe5772a3c7779205-high.jpg",
  "ProductId": "ELR001671",
  "Stock": "InStock"
}