{
  "Manufacturer": "Hotpoint",
  "ProductPrice": 49.9,
  "ProductUrl": "https://www.comet.it/macchine-caffe-americano/coffee-machine-oa-caffe-americano-rossa",
  "ProductName": "COFFEE MACHINE OA CAFFE' AMERICANO ROSSA",
  "ImageUri": "https://cdnakamai.comet.it/b2c/public/icecat/MLN00802C/b96a832777060d48e209e930fc97d570-high.jpg",
  "ProductId": "MLN00802C",
  "Stock": "InStock"
}